[
    {
        "vraag": "Wat is het antwoord van 5//2?",
        "correct": "2",
        "1": "2.5",
        "2": "2",
        "3": "3",
        "4": "1"
    },
    {
        "vraag": "Wat is er aan de hand?",
        "correct": "4",
        "1": "niks",
        "2": "alles",
        "3": "niet zoveel",
        "4": "een boel"
    },
    {
        "vraag": "Wat is er aan de hand?",
        "correct": "3",
        "1": "niks",
        "2": "alles",
        "3": "niet zoveel",
        "4": "een boel"
    },
    {
        "vraag": "Wat is er aan de hand?",
        "correct": "1",
        "1": "niks",
        "2": "alles",
        "3": "niet zoveel",
        "4": "een boel"
    }
]
